M48
; DRILL file {KiCad 5.1.5+dfsg1-2build2} date Tue 20 Oct 2020 14:49:20 BST
; FORMAT={-:-/ absolute / inch / decimal}
; #@! TF.CreationDate,2020-10-20T14:49:20+01:00
; #@! TF.GenerationSoftware,Kicad,Pcbnew,5.1.5+dfsg1-2build2
; #@! TF.FileFunction,NonPlated,1,2,NPTH
FMAT,2
INCH
T1C0.0866
%
G90
G05
T1
X6.15Y-2.55
X6.15Y-3.15
T0
M30
