G04 #@! TF.GenerationSoftware,KiCad,Pcbnew,5.1.5+dfsg1-2build2*
G04 #@! TF.CreationDate,2020-10-20T14:49:23+01:00*
G04 #@! TF.ProjectId,SimpleIllumination,53696d70-6c65-4496-9c6c-756d696e6174,rev?*
G04 #@! TF.SameCoordinates,Original*
G04 #@! TF.FileFunction,Copper,L2,Bot*
G04 #@! TF.FilePolarity,Positive*
%FSLAX46Y46*%
G04 Gerber Fmt 4.6, Leading zero omitted, Abs format (unit mm)*
G04 Created by KiCad (PCBNEW 5.1.5+dfsg1-2build2) date 2020-10-20 14:49:23*
%MOMM*%
%LPD*%
G04 APERTURE LIST*
%ADD10O,1.400000X1.400000*%
%ADD11C,1.400000*%
%ADD12O,1.700000X1.700000*%
%ADD13R,1.700000X1.700000*%
%ADD14C,1.800000*%
%ADD15R,1.800000X1.800000*%
%ADD16C,0.254000*%
G04 APERTURE END LIST*
D10*
X161290000Y-71120000D03*
D11*
X168910000Y-71120000D03*
D12*
X157480000Y-73660000D03*
D13*
X157480000Y-71120000D03*
D14*
X175260000Y-72390000D03*
D15*
X172720000Y-72390000D03*
D16*
G36*
X177409460Y-69141350D02*
G01*
X177861010Y-69679487D01*
X178272879Y-70392864D01*
X178554611Y-71166917D01*
X178697650Y-71978133D01*
X178697650Y-72801867D01*
X178554611Y-73613083D01*
X178272879Y-74387136D01*
X177861010Y-75100513D01*
X177409460Y-75638650D01*
X159975682Y-81865000D01*
X154355000Y-81865000D01*
X154355000Y-79839117D01*
X154475000Y-79839117D01*
X154475000Y-80180883D01*
X154541675Y-80516081D01*
X154672463Y-80831831D01*
X154862337Y-81115998D01*
X155104002Y-81357663D01*
X155388169Y-81547537D01*
X155703919Y-81678325D01*
X156039117Y-81745000D01*
X156380883Y-81745000D01*
X156716081Y-81678325D01*
X157031831Y-81547537D01*
X157315998Y-81357663D01*
X157557663Y-81115998D01*
X157747537Y-80831831D01*
X157878325Y-80516081D01*
X157945000Y-80180883D01*
X157945000Y-79839117D01*
X157878325Y-79503919D01*
X157747537Y-79188169D01*
X157557663Y-78904002D01*
X157315998Y-78662337D01*
X157031831Y-78472463D01*
X156716081Y-78341675D01*
X156380883Y-78275000D01*
X156039117Y-78275000D01*
X155703919Y-78341675D01*
X155388169Y-78472463D01*
X155104002Y-78662337D01*
X154862337Y-78904002D01*
X154672463Y-79188169D01*
X154541675Y-79503919D01*
X154475000Y-79839117D01*
X154355000Y-79839117D01*
X154355000Y-74016890D01*
X156038524Y-74016890D01*
X156083175Y-74164099D01*
X156208359Y-74426920D01*
X156382412Y-74660269D01*
X156598645Y-74855178D01*
X156848748Y-75004157D01*
X157123109Y-75101481D01*
X157353000Y-74980814D01*
X157353000Y-73787000D01*
X157607000Y-73787000D01*
X157607000Y-74980814D01*
X157836891Y-75101481D01*
X158111252Y-75004157D01*
X158361355Y-74855178D01*
X158577588Y-74660269D01*
X158751641Y-74426920D01*
X158876825Y-74164099D01*
X158921476Y-74016890D01*
X158800155Y-73787000D01*
X157607000Y-73787000D01*
X157353000Y-73787000D01*
X156159845Y-73787000D01*
X156038524Y-74016890D01*
X154355000Y-74016890D01*
X154355000Y-70270000D01*
X155991928Y-70270000D01*
X155991928Y-71970000D01*
X156004188Y-72094482D01*
X156040498Y-72214180D01*
X156099463Y-72324494D01*
X156178815Y-72421185D01*
X156275506Y-72500537D01*
X156385820Y-72559502D01*
X156466466Y-72583966D01*
X156382412Y-72659731D01*
X156208359Y-72893080D01*
X156083175Y-73155901D01*
X156038524Y-73303110D01*
X156159845Y-73533000D01*
X157353000Y-73533000D01*
X157353000Y-73513000D01*
X157607000Y-73513000D01*
X157607000Y-73533000D01*
X158800155Y-73533000D01*
X158921476Y-73303110D01*
X158917500Y-73290000D01*
X171181928Y-73290000D01*
X171194188Y-73414482D01*
X171230498Y-73534180D01*
X171289463Y-73644494D01*
X171368815Y-73741185D01*
X171465506Y-73820537D01*
X171575820Y-73879502D01*
X171695518Y-73915812D01*
X171820000Y-73928072D01*
X172434250Y-73925000D01*
X172593000Y-73766250D01*
X172593000Y-72517000D01*
X171343750Y-72517000D01*
X171185000Y-72675750D01*
X171181928Y-73290000D01*
X158917500Y-73290000D01*
X158876825Y-73155901D01*
X158751641Y-72893080D01*
X158577588Y-72659731D01*
X158493534Y-72583966D01*
X158574180Y-72559502D01*
X158684494Y-72500537D01*
X158781185Y-72421185D01*
X158860537Y-72324494D01*
X158919502Y-72214180D01*
X158955812Y-72094482D01*
X158968072Y-71970000D01*
X158968072Y-70988514D01*
X159955000Y-70988514D01*
X159955000Y-71251486D01*
X160006304Y-71509405D01*
X160106939Y-71752359D01*
X160253038Y-71971013D01*
X160438987Y-72156962D01*
X160657641Y-72303061D01*
X160900595Y-72403696D01*
X161158514Y-72455000D01*
X161421486Y-72455000D01*
X161679405Y-72403696D01*
X161922359Y-72303061D01*
X162141013Y-72156962D01*
X162326962Y-71971013D01*
X162473061Y-71752359D01*
X162573696Y-71509405D01*
X162625000Y-71251486D01*
X162625000Y-70988514D01*
X167575000Y-70988514D01*
X167575000Y-71251486D01*
X167626304Y-71509405D01*
X167726939Y-71752359D01*
X167873038Y-71971013D01*
X168058987Y-72156962D01*
X168277641Y-72303061D01*
X168520595Y-72403696D01*
X168778514Y-72455000D01*
X169041486Y-72455000D01*
X169299405Y-72403696D01*
X169542359Y-72303061D01*
X169761013Y-72156962D01*
X169946962Y-71971013D01*
X170093061Y-71752359D01*
X170193696Y-71509405D01*
X170197555Y-71490000D01*
X171181928Y-71490000D01*
X171185000Y-72104250D01*
X171343750Y-72263000D01*
X172593000Y-72263000D01*
X172593000Y-71013750D01*
X172847000Y-71013750D01*
X172847000Y-72263000D01*
X172867000Y-72263000D01*
X172867000Y-72517000D01*
X172847000Y-72517000D01*
X172847000Y-73766250D01*
X173005750Y-73925000D01*
X173620000Y-73928072D01*
X173744482Y-73915812D01*
X173864180Y-73879502D01*
X173974494Y-73820537D01*
X174071185Y-73741185D01*
X174150537Y-73644494D01*
X174209502Y-73534180D01*
X174215056Y-73515873D01*
X174281495Y-73582312D01*
X174532905Y-73750299D01*
X174812257Y-73866011D01*
X175108816Y-73925000D01*
X175411184Y-73925000D01*
X175707743Y-73866011D01*
X175987095Y-73750299D01*
X176238505Y-73582312D01*
X176452312Y-73368505D01*
X176620299Y-73117095D01*
X176736011Y-72837743D01*
X176795000Y-72541184D01*
X176795000Y-72238816D01*
X176736011Y-71942257D01*
X176620299Y-71662905D01*
X176452312Y-71411495D01*
X176238505Y-71197688D01*
X175987095Y-71029701D01*
X175707743Y-70913989D01*
X175411184Y-70855000D01*
X175108816Y-70855000D01*
X174812257Y-70913989D01*
X174532905Y-71029701D01*
X174281495Y-71197688D01*
X174215056Y-71264127D01*
X174209502Y-71245820D01*
X174150537Y-71135506D01*
X174071185Y-71038815D01*
X173974494Y-70959463D01*
X173864180Y-70900498D01*
X173744482Y-70864188D01*
X173620000Y-70851928D01*
X173005750Y-70855000D01*
X172847000Y-71013750D01*
X172593000Y-71013750D01*
X172434250Y-70855000D01*
X171820000Y-70851928D01*
X171695518Y-70864188D01*
X171575820Y-70900498D01*
X171465506Y-70959463D01*
X171368815Y-71038815D01*
X171289463Y-71135506D01*
X171230498Y-71245820D01*
X171194188Y-71365518D01*
X171181928Y-71490000D01*
X170197555Y-71490000D01*
X170245000Y-71251486D01*
X170245000Y-70988514D01*
X170193696Y-70730595D01*
X170093061Y-70487641D01*
X169946962Y-70268987D01*
X169761013Y-70083038D01*
X169542359Y-69936939D01*
X169299405Y-69836304D01*
X169041486Y-69785000D01*
X168778514Y-69785000D01*
X168520595Y-69836304D01*
X168277641Y-69936939D01*
X168058987Y-70083038D01*
X167873038Y-70268987D01*
X167726939Y-70487641D01*
X167626304Y-70730595D01*
X167575000Y-70988514D01*
X162625000Y-70988514D01*
X162573696Y-70730595D01*
X162473061Y-70487641D01*
X162326962Y-70268987D01*
X162141013Y-70083038D01*
X161922359Y-69936939D01*
X161679405Y-69836304D01*
X161421486Y-69785000D01*
X161158514Y-69785000D01*
X160900595Y-69836304D01*
X160657641Y-69936939D01*
X160438987Y-70083038D01*
X160253038Y-70268987D01*
X160106939Y-70487641D01*
X160006304Y-70730595D01*
X159955000Y-70988514D01*
X158968072Y-70988514D01*
X158968072Y-70270000D01*
X158955812Y-70145518D01*
X158919502Y-70025820D01*
X158860537Y-69915506D01*
X158781185Y-69818815D01*
X158684494Y-69739463D01*
X158574180Y-69680498D01*
X158454482Y-69644188D01*
X158330000Y-69631928D01*
X156630000Y-69631928D01*
X156505518Y-69644188D01*
X156385820Y-69680498D01*
X156275506Y-69739463D01*
X156178815Y-69818815D01*
X156099463Y-69915506D01*
X156040498Y-70025820D01*
X156004188Y-70145518D01*
X155991928Y-70270000D01*
X154355000Y-70270000D01*
X154355000Y-64599117D01*
X154475000Y-64599117D01*
X154475000Y-64940883D01*
X154541675Y-65276081D01*
X154672463Y-65591831D01*
X154862337Y-65875998D01*
X155104002Y-66117663D01*
X155388169Y-66307537D01*
X155703919Y-66438325D01*
X156039117Y-66505000D01*
X156380883Y-66505000D01*
X156716081Y-66438325D01*
X157031831Y-66307537D01*
X157315998Y-66117663D01*
X157557663Y-65875998D01*
X157747537Y-65591831D01*
X157878325Y-65276081D01*
X157945000Y-64940883D01*
X157945000Y-64599117D01*
X157878325Y-64263919D01*
X157747537Y-63948169D01*
X157557663Y-63664002D01*
X157315998Y-63422337D01*
X157031831Y-63232463D01*
X156716081Y-63101675D01*
X156380883Y-63035000D01*
X156039117Y-63035000D01*
X155703919Y-63101675D01*
X155388169Y-63232463D01*
X155104002Y-63422337D01*
X154862337Y-63664002D01*
X154672463Y-63948169D01*
X154541675Y-64263919D01*
X154475000Y-64599117D01*
X154355000Y-64599117D01*
X154355000Y-62915000D01*
X159975682Y-62915000D01*
X177409460Y-69141350D01*
G37*
X177409460Y-69141350D02*
X177861010Y-69679487D01*
X178272879Y-70392864D01*
X178554611Y-71166917D01*
X178697650Y-71978133D01*
X178697650Y-72801867D01*
X178554611Y-73613083D01*
X178272879Y-74387136D01*
X177861010Y-75100513D01*
X177409460Y-75638650D01*
X159975682Y-81865000D01*
X154355000Y-81865000D01*
X154355000Y-79839117D01*
X154475000Y-79839117D01*
X154475000Y-80180883D01*
X154541675Y-80516081D01*
X154672463Y-80831831D01*
X154862337Y-81115998D01*
X155104002Y-81357663D01*
X155388169Y-81547537D01*
X155703919Y-81678325D01*
X156039117Y-81745000D01*
X156380883Y-81745000D01*
X156716081Y-81678325D01*
X157031831Y-81547537D01*
X157315998Y-81357663D01*
X157557663Y-81115998D01*
X157747537Y-80831831D01*
X157878325Y-80516081D01*
X157945000Y-80180883D01*
X157945000Y-79839117D01*
X157878325Y-79503919D01*
X157747537Y-79188169D01*
X157557663Y-78904002D01*
X157315998Y-78662337D01*
X157031831Y-78472463D01*
X156716081Y-78341675D01*
X156380883Y-78275000D01*
X156039117Y-78275000D01*
X155703919Y-78341675D01*
X155388169Y-78472463D01*
X155104002Y-78662337D01*
X154862337Y-78904002D01*
X154672463Y-79188169D01*
X154541675Y-79503919D01*
X154475000Y-79839117D01*
X154355000Y-79839117D01*
X154355000Y-74016890D01*
X156038524Y-74016890D01*
X156083175Y-74164099D01*
X156208359Y-74426920D01*
X156382412Y-74660269D01*
X156598645Y-74855178D01*
X156848748Y-75004157D01*
X157123109Y-75101481D01*
X157353000Y-74980814D01*
X157353000Y-73787000D01*
X157607000Y-73787000D01*
X157607000Y-74980814D01*
X157836891Y-75101481D01*
X158111252Y-75004157D01*
X158361355Y-74855178D01*
X158577588Y-74660269D01*
X158751641Y-74426920D01*
X158876825Y-74164099D01*
X158921476Y-74016890D01*
X158800155Y-73787000D01*
X157607000Y-73787000D01*
X157353000Y-73787000D01*
X156159845Y-73787000D01*
X156038524Y-74016890D01*
X154355000Y-74016890D01*
X154355000Y-70270000D01*
X155991928Y-70270000D01*
X155991928Y-71970000D01*
X156004188Y-72094482D01*
X156040498Y-72214180D01*
X156099463Y-72324494D01*
X156178815Y-72421185D01*
X156275506Y-72500537D01*
X156385820Y-72559502D01*
X156466466Y-72583966D01*
X156382412Y-72659731D01*
X156208359Y-72893080D01*
X156083175Y-73155901D01*
X156038524Y-73303110D01*
X156159845Y-73533000D01*
X157353000Y-73533000D01*
X157353000Y-73513000D01*
X157607000Y-73513000D01*
X157607000Y-73533000D01*
X158800155Y-73533000D01*
X158921476Y-73303110D01*
X158917500Y-73290000D01*
X171181928Y-73290000D01*
X171194188Y-73414482D01*
X171230498Y-73534180D01*
X171289463Y-73644494D01*
X171368815Y-73741185D01*
X171465506Y-73820537D01*
X171575820Y-73879502D01*
X171695518Y-73915812D01*
X171820000Y-73928072D01*
X172434250Y-73925000D01*
X172593000Y-73766250D01*
X172593000Y-72517000D01*
X171343750Y-72517000D01*
X171185000Y-72675750D01*
X171181928Y-73290000D01*
X158917500Y-73290000D01*
X158876825Y-73155901D01*
X158751641Y-72893080D01*
X158577588Y-72659731D01*
X158493534Y-72583966D01*
X158574180Y-72559502D01*
X158684494Y-72500537D01*
X158781185Y-72421185D01*
X158860537Y-72324494D01*
X158919502Y-72214180D01*
X158955812Y-72094482D01*
X158968072Y-71970000D01*
X158968072Y-70988514D01*
X159955000Y-70988514D01*
X159955000Y-71251486D01*
X160006304Y-71509405D01*
X160106939Y-71752359D01*
X160253038Y-71971013D01*
X160438987Y-72156962D01*
X160657641Y-72303061D01*
X160900595Y-72403696D01*
X161158514Y-72455000D01*
X161421486Y-72455000D01*
X161679405Y-72403696D01*
X161922359Y-72303061D01*
X162141013Y-72156962D01*
X162326962Y-71971013D01*
X162473061Y-71752359D01*
X162573696Y-71509405D01*
X162625000Y-71251486D01*
X162625000Y-70988514D01*
X167575000Y-70988514D01*
X167575000Y-71251486D01*
X167626304Y-71509405D01*
X167726939Y-71752359D01*
X167873038Y-71971013D01*
X168058987Y-72156962D01*
X168277641Y-72303061D01*
X168520595Y-72403696D01*
X168778514Y-72455000D01*
X169041486Y-72455000D01*
X169299405Y-72403696D01*
X169542359Y-72303061D01*
X169761013Y-72156962D01*
X169946962Y-71971013D01*
X170093061Y-71752359D01*
X170193696Y-71509405D01*
X170197555Y-71490000D01*
X171181928Y-71490000D01*
X171185000Y-72104250D01*
X171343750Y-72263000D01*
X172593000Y-72263000D01*
X172593000Y-71013750D01*
X172847000Y-71013750D01*
X172847000Y-72263000D01*
X172867000Y-72263000D01*
X172867000Y-72517000D01*
X172847000Y-72517000D01*
X172847000Y-73766250D01*
X173005750Y-73925000D01*
X173620000Y-73928072D01*
X173744482Y-73915812D01*
X173864180Y-73879502D01*
X173974494Y-73820537D01*
X174071185Y-73741185D01*
X174150537Y-73644494D01*
X174209502Y-73534180D01*
X174215056Y-73515873D01*
X174281495Y-73582312D01*
X174532905Y-73750299D01*
X174812257Y-73866011D01*
X175108816Y-73925000D01*
X175411184Y-73925000D01*
X175707743Y-73866011D01*
X175987095Y-73750299D01*
X176238505Y-73582312D01*
X176452312Y-73368505D01*
X176620299Y-73117095D01*
X176736011Y-72837743D01*
X176795000Y-72541184D01*
X176795000Y-72238816D01*
X176736011Y-71942257D01*
X176620299Y-71662905D01*
X176452312Y-71411495D01*
X176238505Y-71197688D01*
X175987095Y-71029701D01*
X175707743Y-70913989D01*
X175411184Y-70855000D01*
X175108816Y-70855000D01*
X174812257Y-70913989D01*
X174532905Y-71029701D01*
X174281495Y-71197688D01*
X174215056Y-71264127D01*
X174209502Y-71245820D01*
X174150537Y-71135506D01*
X174071185Y-71038815D01*
X173974494Y-70959463D01*
X173864180Y-70900498D01*
X173744482Y-70864188D01*
X173620000Y-70851928D01*
X173005750Y-70855000D01*
X172847000Y-71013750D01*
X172593000Y-71013750D01*
X172434250Y-70855000D01*
X171820000Y-70851928D01*
X171695518Y-70864188D01*
X171575820Y-70900498D01*
X171465506Y-70959463D01*
X171368815Y-71038815D01*
X171289463Y-71135506D01*
X171230498Y-71245820D01*
X171194188Y-71365518D01*
X171181928Y-71490000D01*
X170197555Y-71490000D01*
X170245000Y-71251486D01*
X170245000Y-70988514D01*
X170193696Y-70730595D01*
X170093061Y-70487641D01*
X169946962Y-70268987D01*
X169761013Y-70083038D01*
X169542359Y-69936939D01*
X169299405Y-69836304D01*
X169041486Y-69785000D01*
X168778514Y-69785000D01*
X168520595Y-69836304D01*
X168277641Y-69936939D01*
X168058987Y-70083038D01*
X167873038Y-70268987D01*
X167726939Y-70487641D01*
X167626304Y-70730595D01*
X167575000Y-70988514D01*
X162625000Y-70988514D01*
X162573696Y-70730595D01*
X162473061Y-70487641D01*
X162326962Y-70268987D01*
X162141013Y-70083038D01*
X161922359Y-69936939D01*
X161679405Y-69836304D01*
X161421486Y-69785000D01*
X161158514Y-69785000D01*
X160900595Y-69836304D01*
X160657641Y-69936939D01*
X160438987Y-70083038D01*
X160253038Y-70268987D01*
X160106939Y-70487641D01*
X160006304Y-70730595D01*
X159955000Y-70988514D01*
X158968072Y-70988514D01*
X158968072Y-70270000D01*
X158955812Y-70145518D01*
X158919502Y-70025820D01*
X158860537Y-69915506D01*
X158781185Y-69818815D01*
X158684494Y-69739463D01*
X158574180Y-69680498D01*
X158454482Y-69644188D01*
X158330000Y-69631928D01*
X156630000Y-69631928D01*
X156505518Y-69644188D01*
X156385820Y-69680498D01*
X156275506Y-69739463D01*
X156178815Y-69818815D01*
X156099463Y-69915506D01*
X156040498Y-70025820D01*
X156004188Y-70145518D01*
X155991928Y-70270000D01*
X154355000Y-70270000D01*
X154355000Y-64599117D01*
X154475000Y-64599117D01*
X154475000Y-64940883D01*
X154541675Y-65276081D01*
X154672463Y-65591831D01*
X154862337Y-65875998D01*
X155104002Y-66117663D01*
X155388169Y-66307537D01*
X155703919Y-66438325D01*
X156039117Y-66505000D01*
X156380883Y-66505000D01*
X156716081Y-66438325D01*
X157031831Y-66307537D01*
X157315998Y-66117663D01*
X157557663Y-65875998D01*
X157747537Y-65591831D01*
X157878325Y-65276081D01*
X157945000Y-64940883D01*
X157945000Y-64599117D01*
X157878325Y-64263919D01*
X157747537Y-63948169D01*
X157557663Y-63664002D01*
X157315998Y-63422337D01*
X157031831Y-63232463D01*
X156716081Y-63101675D01*
X156380883Y-63035000D01*
X156039117Y-63035000D01*
X155703919Y-63101675D01*
X155388169Y-63232463D01*
X155104002Y-63422337D01*
X154862337Y-63664002D01*
X154672463Y-63948169D01*
X154541675Y-64263919D01*
X154475000Y-64599117D01*
X154355000Y-64599117D01*
X154355000Y-62915000D01*
X159975682Y-62915000D01*
X177409460Y-69141350D01*
M02*
