G04 #@! TF.GenerationSoftware,KiCad,Pcbnew,5.1.5+dfsg1-2build2*
G04 #@! TF.CreationDate,2020-10-20T14:49:23+01:00*
G04 #@! TF.ProjectId,SimpleIllumination,53696d70-6c65-4496-9c6c-756d696e6174,rev?*
G04 #@! TF.SameCoordinates,Original*
G04 #@! TF.FileFunction,Profile,NP*
%FSLAX46Y46*%
G04 Gerber Fmt 4.6, Leading zero omitted, Abs format (unit mm)*
G04 Created by KiCad (PCBNEW 5.1.5+dfsg1-2build2) date 2020-10-20 14:49:23*
%MOMM*%
%LPD*%
G04 APERTURE LIST*
%ADD10C,0.050000*%
%ADD11C,0.100000*%
G04 APERTURE END LIST*
D10*
X177800000Y-76200000D02*
X160020000Y-82550000D01*
X160020000Y-62230000D02*
X177800000Y-68580000D01*
X177800000Y-68580000D02*
G75*
G02X177800000Y-76200000I-3810000J-3810000D01*
G01*
D11*
X153670000Y-62230000D02*
X160020000Y-62230000D01*
X153670000Y-82550000D02*
X153670000Y-62230000D01*
X160020000Y-82550000D02*
X153670000Y-82550000D01*
M02*
